Assignment 2
…
## # A tibble: 2 x 6
##   country   continent lifeExp2007 lifeExp1952 diffLifeExp yn      
##   <fct>     <fct>           <dbl>       <dbl>       <dbl> <chr>   
## 1 Swaziland Africa           39.6        41.4       -1.79 Decrease
## 2 Zimbabwe  Africa           43.5        48.5       -4.96 Decrease

1.4

gapminder %>% 
  group_by(country) %>%  
  summarise(maxGDP = max(gdpPercap))

## # A tibble: 142 x 2
##    country     maxGDP
##    <fct>        <dbl>
##  1 Afghanistan   978.
##  2 Albania      5937.
##  3 Algeria      6223.
##  4 Angola       5523.
##  5 Argentina   12779.
##  6 Australia   34435.
##  7 Austria     36126.
##  8 Bahrain     29796.
##  9 Bangladesh   1391.
## 10 Belgium     33693.
## # ... with 132 more rows
…
Exercise 2

gapminder_n <- gapminder %>% 
  select(continent, lifeExp) %>% 
print(gapminder_n)

## # A tibble: 1,704 x 2
##    continent lifeExp
##    <fct>       <dbl>
##  1 Asia         28.8
##  2 Asia         30.3
##  3 Asia         32.0
##  4 Asia         34.0
##  5 Asia         36.1
##  6 Asia         38.4
##  7 Asia         39.9
##  8 Asia         40.8
##  9 Asia         41.7
## 10 Asia         41.8
## # ... with 1,694 more rows
…
Comment: The analyst wasnt succeeded. The analyst used concatenate with the symbol , (comma), but it should be | (or).

Right way

filter(gapminder, country=="Rwanda" | country=="Afghanistan")

## # A tibble: 24 x 6
##    country     continent  year lifeExp      pop gdpPercap
##    <fct>       <fct>     <int>   <dbl>    <int>     <dbl>
##  1 Afghanistan Asia       1952    28.8  8425333      779.
##  2 Afghanistan Asia       1957    30.3  9240934      821.
##  3 Afghanistan Asia       1962    32.0 10267083      853.
##  4 Afghanistan Asia       1967    34.0 11537966      836.
##  5 Afghanistan Asia       1972    36.1 13079460      740.
##  6 Afghanistan Asia       1977    38.4 14880372      786.
##  7 Afghanistan Asia       1982    39.9 12881816      978.
##  8 Afghanistan Asia       1987    40.8 13867957      852.
##  9 Afghanistan Asia       1992    41.7 16317921      649.
## 10 Afghanistan Asia       1997    41.8 22227415      635.
## # ... with 14 more rows
…
